Journal (reproducible report)
…
## Running cmd /c start "\"\"" /b \
##   "https://www.radon-bikes.de/mountainbike/hardtail/bikegrid"

html_bike_category  <- read_html(bike_category_url)

bike_name_tbl        <- html_bike_category %>%
html_nodes(css = ".m-bikegrid__info .a-heading--small") %>%
html_text() %>%

enframe(name = "position", value = "name")
bike_name_tbl 

## # A tibble: 33 x 2
##    position name                                                                
##       <int> <chr>                                                               
##  1        1 "\n                                    JEALOUS 8.0\n               ~
##  2        2 "\n                                    JEALOUS 9.0\n               ~
##  3        3 "\n                                    JEALOUS 10.0\n              ~
##  4        4 "\n                                    JEALOUS 10.0 EA\n           ~
##  5        5 "\n                                    JEALOUS 10.0\n              ~
##  6        6 "\n                                    JEALOUS 10.0 EA\n           ~
##  7        7 "\n                                    NEW JEALOUS SUPERLITE 1X\n  ~
##  8        8 "\n                                    JEALOUS AL 8.0\n            ~
##  9        9 "\n                                    JEALOUS AL 8.0 HD\n         ~
## 10       10 "\n                                    JEALOUS AL 9.0\n            ~
## # ... with 23 more rows

bike_price_tbl <- html_bike_category %>%
html_nodes(css = ".m-bikegrid__price.currency_eur .m-bikegrid__price--active") %>%  
html_text() %>% 
enframe(name = "position", value = "price")
bike_price_tbl

## # A tibble: 33 x 2
##    position price 
##       <int> <chr> 
##  1        1 2599 €
##  2        2 2999 €
##  3        3 3999 €
##  4        4 5299 €
##  5        5 3699 €
##  6        6 3799€ 
##  7        7 999 € 
##  8        8 999 € 
##  9        9 1299 €
## 10       10 1499 €
## # ... with 23 more rows

model_price_tbl <- left_join(bike_name_tbl, bike_price_tbl)%>% 
select(name, price)

## Joining, by = "position"

model_price_tbl

## # A tibble: 33 x 2
##    name                                                                    price
##    <chr>                                                                   <chr>
##  1 "\n                                    JEALOUS 8.0\n                  ~ 2599~
##  2 "\n                                    JEALOUS 9.0\n                  ~ 2999~
##  3 "\n                                    JEALOUS 10.0\n                 ~ 3999~
##  4 "\n                                    JEALOUS 10.0 EA\n              ~ 5299~
##  5 "\n                                    JEALOUS 10.0\n                 ~ 3699~
##  6 "\n                                    JEALOUS 10.0 EA\n              ~ 3799€
##  7 "\n                                    NEW JEALOUS SUPERLITE 1X\n     ~ 999 €
##  8 "\n                                    JEALOUS AL 8.0\n               ~ 999 €
##  9 "\n                                    JEALOUS AL 8.0 HD\n            ~ 1299~
## 10 "\n                                    JEALOUS AL 9.0\n               ~ 1499~
## # ... with 23 more rows
…
